^C:\USERS\JEFFREY\DOCUMENTS\KNIGHTS-TOUR-ASSIGNMENT\KNIGHTS TOUR\KNIGHTS TOUR\SOURCE.CPP
C:\USERS\JEFFREY\DOCUMENTS\KNIGHTS-TOUR-ASSIGNMENT\KNIGHTS TOUR\KNIGHTS TOUR\RELEASE\VC120.PDB
C:\USERS\JEFFREY\DOCUMENTS\KNIGHTS-TOUR-ASSIGNMENT\KNIGHTS TOUR\KNIGHTS TOUR\RELEASE\SOURCE.OBJ
