^C:\USERS\JEFFREY\DOCUMENTS\KNIGHTS-TOUR-ASSIGNMENT\KNIGHTS TOUR\KNIGHTS TOUR\RELEASE\SOURCE.OBJ
C:\USERS\JEFFREY\DOCUMENTS\KNIGHTS-TOUR-ASSIGNMENT\KNIGHTS TOUR\RELEASE\KNIGHTS TOUR.EXE
C:\USERS\JEFFREY\DOCUMENTS\KNIGHTS-TOUR-ASSIGNMENT\KNIGHTS TOUR\RELEASE\KNIGHTS TOUR.PDB
